^C:\USERS\КОНСТАНТИН\APPDATA\LOCAL\TEMP\.NETFRAMEWORK,VERSION=V4.5.ASSEMBLYATTRIBUTES.CPP
C:\USERS\КОНСТАНТИН\APPDATA\LOCAL\TEMP\.NETFRAMEWORK,VERSION=V4.5.ASSEMBLYATTRIBUTES.CPP
D:\PROGRAM FILES\VISUAL STUDIO\VC\BIN\1049\CLUI.DLL
C:\WINDOWS\GLOBALIZATION\SORTING\SORTDEFAULT.NLS
C:\WINDOWS\MICROSOFT.NET\FRAMEWORK\V2.0.50727\MSCORWKS.DLL
C:\WINDOWS\MICROSOFT.NET\FRAMEWORK\V4.0.30319\CLR.DLL
D:\PROGRAM FILES\VISUAL STUDIO\VC\BIN\CL.EXE.CONFIG
C:\WINDOWS\SYSTEM32\TZRES.DLL
C:\WINDOWS\MICROSOFT.NET\FRAMEWORK\V4.0.30319\MSCORLIB.DLL
^D:\PROJECTS\ООП\REV\REV\CD.CPP
D:\PROJECTS\ООП\REV\REV\CD.CPP
D:\PROGRAM FILES\VISUAL STUDIO\VC\BIN\CL.EXE.CONFIG
C:\PROGRAM FILES (X86)\REFERENCE ASSEMBLIES\MICROSOFT\FRAMEWORK\.NETFRAMEWORK\V4.5\MSCORLIB.DLL
C:\PROGRAM FILES (X86)\REFERENCE ASSEMBLIES\MICROSOFT\FRAMEWORK\.NETFRAMEWORK\V4.5\SYSTEM.DATA.DLL
C:\PROGRAM FILES (X86)\REFERENCE ASSEMBLIES\MICROSOFT\FRAMEWORK\.NETFRAMEWORK\V4.5\SYSTEM.DLL
C:\PROGRAM FILES (X86)\REFERENCE ASSEMBLIES\MICROSOFT\FRAMEWORK\.NETFRAMEWORK\V4.5\SYSTEM.DRAWING.DLL
C:\PROGRAM FILES (X86)\REFERENCE ASSEMBLIES\MICROSOFT\FRAMEWORK\.NETFRAMEWORK\V4.5\SYSTEM.WINDOWS.FORMS.DLL
C:\PROGRAM FILES (X86)\REFERENCE ASSEMBLIES\MICROSOFT\FRAMEWORK\.NETFRAMEWORK\V4.5\SYSTEM.XML.DLL
D:\PROJECTS\ооп\REV\REV\CD.H
D:\PROJECTS\ооп\REV\REV\GAME.H
^D:\PROJECTS\ООП\REV\REV\DW1.CPP
D:\PROJECTS\ООП\REV\REV\DW1.CPP
D:\PROGRAM FILES\VISUAL STUDIO\VC\BIN\CL.EXE.CONFIG
C:\PROGRAM FILES (X86)\REFERENCE ASSEMBLIES\MICROSOFT\FRAMEWORK\.NETFRAMEWORK\V4.5\MSCORLIB.DLL
C:\PROGRAM FILES (X86)\REFERENCE ASSEMBLIES\MICROSOFT\FRAMEWORK\.NETFRAMEWORK\V4.5\SYSTEM.DATA.DLL
C:\PROGRAM FILES (X86)\REFERENCE ASSEMBLIES\MICROSOFT\FRAMEWORK\.NETFRAMEWORK\V4.5\SYSTEM.DLL
C:\PROGRAM FILES (X86)\REFERENCE ASSEMBLIES\MICROSOFT\FRAMEWORK\.NETFRAMEWORK\V4.5\SYSTEM.DRAWING.DLL
C:\PROGRAM FILES (X86)\REFERENCE ASSEMBLIES\MICROSOFT\FRAMEWORK\.NETFRAMEWORK\V4.5\SYSTEM.WINDOWS.FORMS.DLL
C:\PROGRAM FILES (X86)\REFERENCE ASSEMBLIES\MICROSOFT\FRAMEWORK\.NETFRAMEWORK\V4.5\SYSTEM.XML.DLL
D:\PROJECTS\ооп\REV\REV\DW1.H
^D:\PROJECTS\ООП\REV\REV\DW2.CPP
D:\PROJECTS\ООП\REV\REV\DW2.CPP
D:\PROGRAM FILES\VISUAL STUDIO\VC\BIN\CL.EXE.CONFIG
C:\PROGRAM FILES (X86)\REFERENCE ASSEMBLIES\MICROSOFT\FRAMEWORK\.NETFRAMEWORK\V4.5\MSCORLIB.DLL
C:\PROGRAM FILES (X86)\REFERENCE ASSEMBLIES\MICROSOFT\FRAMEWORK\.NETFRAMEWORK\V4.5\SYSTEM.DATA.DLL
C:\PROGRAM FILES (X86)\REFERENCE ASSEMBLIES\MICROSOFT\FRAMEWORK\.NETFRAMEWORK\V4.5\SYSTEM.DLL
C:\PROGRAM FILES (X86)\REFERENCE ASSEMBLIES\MICROSOFT\FRAMEWORK\.NETFRAMEWORK\V4.5\SYSTEM.DRAWING.DLL
C:\PROGRAM FILES (X86)\REFERENCE ASSEMBLIES\MICROSOFT\FRAMEWORK\.NETFRAMEWORK\V4.5\SYSTEM.WINDOWS.FORMS.DLL
C:\PROGRAM FILES (X86)\REFERENCE ASSEMBLIES\MICROSOFT\FRAMEWORK\.NETFRAMEWORK\V4.5\SYSTEM.XML.DLL
D:\PROJECTS\ооп\REV\REV\DW2.H
^D:\PROJECTS\ООП\REV\REV\DW3.CPP
D:\PROJECTS\ООП\REV\REV\DW3.CPP
D:\PROGRAM FILES\VISUAL STUDIO\VC\BIN\CL.EXE.CONFIG
C:\PROGRAM FILES (X86)\REFERENCE ASSEMBLIES\MICROSOFT\FRAMEWORK\.NETFRAMEWORK\V4.5\MSCORLIB.DLL
C:\PROGRAM FILES (X86)\REFERENCE ASSEMBLIES\MICROSOFT\FRAMEWORK\.NETFRAMEWORK\V4.5\SYSTEM.DATA.DLL
C:\PROGRAM FILES (X86)\REFERENCE ASSEMBLIES\MICROSOFT\FRAMEWORK\.NETFRAMEWORK\V4.5\SYSTEM.DLL
C:\PROGRAM FILES (X86)\REFERENCE ASSEMBLIES\MICROSOFT\FRAMEWORK\.NETFRAMEWORK\V4.5\SYSTEM.DRAWING.DLL
C:\PROGRAM FILES (X86)\REFERENCE ASSEMBLIES\MICROSOFT\FRAMEWORK\.NETFRAMEWORK\V4.5\SYSTEM.WINDOWS.FORMS.DLL
C:\PROGRAM FILES (X86)\REFERENCE ASSEMBLIES\MICROSOFT\FRAMEWORK\.NETFRAMEWORK\V4.5\SYSTEM.XML.DLL
D:\PROJECTS\ооп\REV\REV\DW3.H
D:\PROJECTS\ооп\REV\REV\GAME.H
^D:\PROJECTS\ООП\REV\REV\EG.CPP
D:\PROJECTS\ООП\REV\REV\EG.CPP
D:\PROGRAM FILES\VISUAL STUDIO\VC\BIN\CL.EXE.CONFIG
C:\PROGRAM FILES (X86)\REFERENCE ASSEMBLIES\MICROSOFT\FRAMEWORK\.NETFRAMEWORK\V4.5\MSCORLIB.DLL
C:\PROGRAM FILES (X86)\REFERENCE ASSEMBLIES\MICROSOFT\FRAMEWORK\.NETFRAMEWORK\V4.5\SYSTEM.DATA.DLL
C:\PROGRAM FILES (X86)\REFERENCE ASSEMBLIES\MICROSOFT\FRAMEWORK\.NETFRAMEWORK\V4.5\SYSTEM.DLL
C:\PROGRAM FILES (X86)\REFERENCE ASSEMBLIES\MICROSOFT\FRAMEWORK\.NETFRAMEWORK\V4.5\SYSTEM.DRAWING.DLL
C:\PROGRAM FILES (X86)\REFERENCE ASSEMBLIES\MICROSOFT\FRAMEWORK\.NETFRAMEWORK\V4.5\SYSTEM.WINDOWS.FORMS.DLL
C:\PROGRAM FILES (X86)\REFERENCE ASSEMBLIES\MICROSOFT\FRAMEWORK\.NETFRAMEWORK\V4.5\SYSTEM.XML.DLL
D:\PROJECTS\ооп\REV\REV\EG.H
D:\PROJECTS\ооп\REV\REV\GAME.H
^D:\PROJECTS\ООП\REV\REV\GAME.CPP
D:\PROJECTS\ООП\REV\REV\GAME.CPP
D:\PROGRAM FILES\VISUAL STUDIO\VC\BIN\CL.EXE.CONFIG
C:\PROGRAM FILES (X86)\REFERENCE ASSEMBLIES\MICROSOFT\FRAMEWORK\.NETFRAMEWORK\V4.5\MSCORLIB.DLL
C:\PROGRAM FILES (X86)\REFERENCE ASSEMBLIES\MICROSOFT\FRAMEWORK\.NETFRAMEWORK\V4.5\SYSTEM.DATA.DLL
C:\PROGRAM FILES (X86)\REFERENCE ASSEMBLIES\MICROSOFT\FRAMEWORK\.NETFRAMEWORK\V4.5\SYSTEM.DLL
C:\PROGRAM FILES (X86)\REFERENCE ASSEMBLIES\MICROSOFT\FRAMEWORK\.NETFRAMEWORK\V4.5\SYSTEM.DRAWING.DLL
C:\PROGRAM FILES (X86)\REFERENCE ASSEMBLIES\MICROSOFT\FRAMEWORK\.NETFRAMEWORK\V4.5\SYSTEM.WINDOWS.FORMS.DLL
C:\PROGRAM FILES (X86)\REFERENCE ASSEMBLIES\MICROSOFT\FRAMEWORK\.NETFRAMEWORK\V4.5\SYSTEM.XML.DLL
D:\PROJECTS\ооп\REV\REV\GAME.H
^D:\PROJECTS\ООП\REV\REV\MYFORM.CPP
D:\PROJECTS\ООП\REV\REV\MYFORM.CPP
D:\PROGRAM FILES\VISUAL STUDIO\VC\BIN\CL.EXE.CONFIG
C:\PROGRAM FILES (X86)\REFERENCE ASSEMBLIES\MICROSOFT\FRAMEWORK\.NETFRAMEWORK\V4.5\MSCORLIB.DLL
C:\PROGRAM FILES (X86)\REFERENCE ASSEMBLIES\MICROSOFT\FRAMEWORK\.NETFRAMEWORK\V4.5\SYSTEM.DATA.DLL
C:\PROGRAM FILES (X86)\REFERENCE ASSEMBLIES\MICROSOFT\FRAMEWORK\.NETFRAMEWORK\V4.5\SYSTEM.DLL
C:\PROGRAM FILES (X86)\REFERENCE ASSEMBLIES\MICROSOFT\FRAMEWORK\.NETFRAMEWORK\V4.5\SYSTEM.DRAWING.DLL
C:\PROGRAM FILES (X86)\REFERENCE ASSEMBLIES\MICROSOFT\FRAMEWORK\.NETFRAMEWORK\V4.5\SYSTEM.WINDOWS.FORMS.DLL
C:\PROGRAM FILES (X86)\REFERENCE ASSEMBLIES\MICROSOFT\FRAMEWORK\.NETFRAMEWORK\V4.5\SYSTEM.XML.DLL
D:\PROJECTS\ооп\REV\REV\MYFORM.H
D:\PROJECTS\ооп\REV\REV\DW1.H
D:\PROJECTS\ооп\REV\REV\DW2.H
D:\PROJECTS\ооп\REV\REV\DW3.H
D:\PROJECTS\ооп\REV\REV\GAME.H
D:\PROJECTS\ооп\REV\REV\CD.H
D:\PROJECTS\ооп\REV\REV\EG.H
